<svg xmlns="http://www.w3.org/2000/svg" class="input-icon" x="0px" y="0px" viewBox="300 200 500 700"
     xml:space="preserve">
  <path d="M539,203.646c-117.475,0-213,95.572-213,213.047v246.613c0,117.475,95.525,213.047,213,213.047s213-95.572,213-213.047  V416.693C752,299.219,656.475,203.646,539,203.646z M730,663.307c0,105.388-85.613,191.126-191,191.126s-191-85.738-191-191.126V533  h382V663.307z M730,511H549V225.846c101,5.357,181,88.908,181,190.848V511z"/></svg>
